myspotify
…
Function: play_btn()

play_btn() returns a dataframe with columns
song, artist, and n, where
n is the number of instances where the user manually the
“play button” to start the song the most. (This likely means that it was
the first song played.) Just enter your dataframe!

play_btn(extended_example)
#> # A tibble: 306 × 3
#> # Groups:   song, artist [306]
#>    song                            artist                 n
#>    <chr>                           <chr>              <int>
#>  1 King Kunta                      Kendrick Lamar        10
#>  2 Killing Me Softly With His Song Fugees                 9
#>  3 Alone Again (Naturally)         Gilbert O'Sullivan     8
#>  4 Love Story (Taylor’s Version)   Taylor Swift           8
#>  5 You Don't Own Me                Lesley Gore            8
#>  6 How Deep Is Your Love           Bee Gees               7
#>  7 Wild Mountain Thyme             Celtic Woman           7
#>  8 29                              Demi Lovato            6
#>  9 9 to 5                          Dolly Parton           6
#> 10 Cat's in the Cradle             Harry Chapin           6
#> # … with 296 more rows
…
